initials,quizscore,sleep,standing,registered
MX,79,7.285722886,Upperclassman,NO
PU,55,8.050276976,Upperclassman,YES
JM,36,6.324786437,Freshman,YES
SL,67,6.997503455,Upperclassman,YES
PY,62,7.787173989,Freshman,YES
TD,78,9.251802511,Upperclassman,YES
FV,65,5.371731999,Freshman,YES
WF,73,9.961590591,Freshman,NO
CH,68,4.799331406,Upperclassman,YES
YH,61,8.15344268,Upperclassman,NO
NY,69,8.083370535,Upperclassman,YES
TX,69,7.394699359,Freshman,NO
AK,55,6.676684151,Upperclassman,YES
RH,56,7.257967751,Freshman,YES
NF,63,7.065920147,Freshman,NO
XL,74,7.879781605,Upperclassman,YES
WN,78,6.885967596,Upperclassman,NO
QV,88,8.750500585,Upperclassman,YES
QY,67,7.241605097,Upperclassman,YES
XN,88,6.493662918,Upperclassman,NO
BT,61,6.291554521,Freshman,NO
ST,79,6.594951909,Freshman,YES
WY,81,6.721537737,Upperclassman,NO
ML,55,5.778899933,Upperclassman,NO
RA,56,6.879313983,Upperclassman,NO
JL,61,5.375936905,Freshman,YES
UN,67,6.210405426,Upperclassman,YES
UH,56,7.04589279,Upperclassman,YES
IA,68,6.993064526,Freshman,YES
TH,55,8.158383819,Freshman,YES
HI,70,6.67989405,Upperclassman,YES
QC,50,4.716435776,Freshman,YES
CO,55,6.490952567,Freshman,NO